{
  "cSpell.enabledLanguageIds": [
      "asciidoc",
      "c",
      "cpp",
      "csharp",
      "css",
      "go",
      "handlebars",
      "html",
      "jade",
      "javascript",
      "javascriptreact",
      "json",
      "latex",
      "less",
      "markdown",
      "php",
      "plaintext",
      "powershell",
      "pub",
      "python",
      "restructuredtext",
      "rust",
      "scss",
      "text",
      "typescript",
      "typescriptreact",
      "yml"
    ],
    "cSpell.userWords": [
      "Alacritty",
      "Chocolatey",
      "Colemak",
      "Draevin",
      "Fira",
      "Keymaps",
      "Monospace",
      "Quefrency",
      "Sinc",
      "TFVC",
      "Yubikey",
      "azureus",
      "behaviour",
      "blocklets",
      "changeset",
      "choco",
      "cmds",
      "dotfiles",
      "drashna",
      "dropdown",
      "gnupg",
      "gorchive",
      "hotfix",
      "mgmt",
      "minimus",
      "noctis",
      "objs",
      "obscuro",
      "recurse",
      "repo",
      "reqs",
      "ruleset",
      "sereno",
      "snapd",
      "sqlproj",
      "symlink",
      "symlinks",
      "tools",
      "web"
    ],
    "disableLigatures.mode": "Cursor",
    "editor.cursorBlinking": "phase",
    "editor.cursorStyle": "block",
    "editor.detectIndentation": false,
    "editor.fontFamily": "FiraCode Nerd Font, Fira Code, monospace",
    "editor.fontLigatures": true,
    "editor.minimap.enabled": false,
    "editor.renderWhitespace": "all",
    "editor.renderControlCharacters": true,
    "editor.tabSize": 2,
    "files.associations": {
      ".zshrc-*": "shellscript",
      "*.rasi": "json",
      "*.facts": "json"
    },
    "git.autorefresh": true,
    "git.confirmSync": false,
    "markdownlint.config": {
        "MD013": false,
        "MD036": false,
        "MD033": false
    },
    "powershell.integratedConsole.showOnStartup": false,
    "window.titleBarStyle": "custom",
    "workbench.colorTheme": "Noctis Minimus",
    "workbench.iconTheme": "minimalistic-icons",
    "workbench.statusBar.visible": true,
    "workbench.settings.editor": "json",
    "extensions.ignoreRecommendations": false,
    "[c]": {
      "editor.defaultFormatter": "xaver.clang-format"
    },
    "[cpp]": {
      "editor.defaultFormatter": "xaver.clang-format"
    },
    "redhat.telemetry.enabled": false,
    "security.workspace.trust.untrustedFiles": "open",
    "diffEditor.ignoreTrimWhitespace": false
}